/home/cmolina/DESARROLLO/cursos/udemy/worksapace/sisfac/sisfac-web/src/main/java/com/kmeraky/sisfac/facturacion/beans/FacturaBean.java
/home/cmolina/DESARROLLO/cursos/udemy/worksapace/sisfac/sisfac-web/src/main/java/com/kmeraky/sisfac/admin/beans/TipoProductoBean.java
/home/cmolina/DESARROLLO/cursos/udemy/worksapace/sisfac/sisfac-web/src/main/java/com/kmeraky/sisfac/core/AbstractManagedBean.java
/home/cmolina/DESARROLLO/cursos/udemy/worksapace/sisfac/sisfac-web/src/main/java/com/kmeraky/sisfac/seguridad/beans/LoginBean.java
/home/cmolina/DESARROLLO/cursos/udemy/worksapace/sisfac/sisfac-web/src/main/java/com/kmeraky/sisfac/chek/beans/SelectionView.java
/home/cmolina/DESARROLLO/cursos/udemy/worksapace/sisfac/sisfac-web/src/main/java/com/kmeraky/sisfac/core/convertidor/ConvTipoProducto.java
/home/cmolina/DESARROLLO/cursos/udemy/worksapace/sisfac/sisfac-web/src/main/java/com/kmeraky/sisfac/admin/beans/ProductoBean.java
